index
…
# A tibble: 1 × 2
  splits             id        
  <list>             <chr>     
1 <split [2255/752]> validation

Added in rsample 1.2.0 and tune 1.1.2 on 2023-08-23

Validation splits

We can also use training(), testing() and validation() functions as we know them

horror_train <- training(horror_split)
horror_train

# A tibble: 2,255 × 9
     budget genres                  id production_countries release_date runtime
      <dbl> <chr>                <dbl> <chr>                <date>         <dbl>
 1 19000000 Action, Thriller, C…   755 United States of Am… 1996-01-19       108
 2 47000000 Drama, Thriller, Ro…  9095 United States of Am… 1996-02-23       104
 3       NA Drama                34996 United States of Am… 1995-01-10        82
 4       NA Mystery, Thriller     8973 United States of Am… 1995-08-25       119
 5 35000000 Science Fiction, Ac…  9348 United States of Am… 1995-07-07       108
 6       NA Thriller, Drama, My… 18256 United States of Am… 1995-08-04        95
 7 45000000 Drama, Science Fict…  3036 United Kingdom, Jap… 1994-11-04       123
 8       NA Drama                92769 Canada               1995-10-03        90
 9       NA Comedy, Thriller      9059 United States of Am… 1995-01-13        92
10  6000000 Crime, Thriller      25066 United States of Am… 1995-05-24        98
# ℹ 2,245 more rows
# ℹ 3 more variables: spoken_languages <chr>, title <chr>, surv <Surv>
…
horror_train$genres |> strsplit(", ") |> unlist() |> unique() |> length()

[1] 19

Creating dummies

With step_dummy(genres)

recipe(~ genres, data = horror_train) |>
  step_dummy(genres) |>
  prep() |>
  bake(new_data = NULL)

# A tibble: 2,255 × 320
   genres_Action genres_Action..Adventure genres_Action..Adventure..Animation.…¹
           <dbl>                    <dbl>                                  <dbl>
 1             0                        0                                      0
 2             0                        0                                      0
 3             0                        0                                      0
 4             0                        0                                      0
 5             0                        0                                      0
 6             0                        0                                      0
 7             0                        0                                      0
 8             0                        0                                      0
 9             0                        0                                      0
10             0                        0                                      0
# ℹ 2,245 more rows
# ℹ abbreviated name: ¹​genres_Action..Adventure..Animation..Comedy..Family
# ℹ 317 more variables:
#   genres_Action..Adventure..Drama..Foreign..Thriller <dbl>,
#   genres_Action..Adventure..Drama..History <dbl>,
#   genres_Action..Adventure..Drama..Thriller <dbl>,
#   genres_Action..Adventure..Fantasy <dbl>, …

Creating fancy dummies

With step_dummy_extract(genres, sep = ", ")

recipe(~ genres, data = horror_train) |>
  step_dummy_extract(genres, sep = ", ") |>
  prep() |>
  bake(new_data = NULL)

# A tibble: 2,255 × 20
   genres_Action genres_Adventure genres_Animation genres_Comedy genres_Crime
           <int>            <int>            <int>         <int>        <int>
 1             1                0                0             0            1
 2             0                0                0             0            0
 3             0                0                0             0            0
 4             0                0                0             0            0
 5             1                0                0             0            0
 6             0                0                0             0            0
 7             0                0                0             0            0
 8             0                0                0             0            0
 9             0                0                0             1            0
10             0                0                0             0            1
# ℹ 2,245 more rows
# ℹ 15 more variables: genres_Documentary <int>, genres_Drama <int>,
#   genres_Family <int>, genres_Fantasy <int>, genres_Foreign <int>,
#   genres_History <int>, genres_Music <int>, genres_Mystery <int>,
#   genres_Romance <int>, genres_Science.Fiction <int>, genres_Thriller <int>,
#   genres_TV.Movie <int>, genres_War <int>, genres_Western <int>,
#   genres_other <int>

Added in recipes 0.2.0 in 2022-02-18

Creating fancy dummies

With threshold = 0.1

recipe(~ genres, data = horror_train) |>
  step_dummy_extract(genres, sep = ", ", threshold = 0.1) |>
  prep() |>
  bake(new_data = NULL)

# A tibble: 2,255 × 7
   genres_Action genres_Comedy genres_Drama genres_Mystery
           <int>         <int>        <int>          <int>
 1             1             0            0              0
 2             0             0            1              0
 3             0             0            1              0
 4             0             0            0              1
 5             1             0            0              0
 6             0             0            1              1
 7             0             0            1              0
 8             0             0            1              0
 9             0             1            0              0
10             0             0            0              0
# ℹ 2,245 more rows
# ℹ 3 more variables: genres_Science.Fiction <int>, genres_Thriller <int>,
#   genres_other <int>

Added in recipes 0.2.0 in 2022-02-18

Dealing with Dates

We use step_date() to deal with release_date variable

with the arguments features = c("dow", "month"), label = FALSE, and keep_original_cols = FALSE

recipe(~ release_date, data = horror_train) |>
  step_date(all_date_predictors(), features = c("dow", "month"), label = FALSE, keep_original_cols = FALSE) |>
  prep() |>
  bake(new_data = NULL)

# A tibble: 2,255 × 2
   release_date_dow release_date_month
              <int>              <int>
 1                6                  1
 2                6                  2
 3                3                  1
 4                6                  8
 5                6                  7
 6                6                  8
 7                6                 11
 8                3                 10
 9                6                  1
10                4                  5
# ℹ 2,245 more rows
…
Prediction

In the time-to-event setting, there are many things we could try to predict. In tidymodels we believe we got it covered

These are selected by setting type = and sometimes specifying eval_times

Prediction - time

for type = "time" we get time to event prediction (The default)

surv_wflow_fit |>
  predict(horror_train, type = "time") 

# A tibble: 2,255 × 1
   .pred_time
        <dbl>
 1      4439.
 2      1934.
 3     28915.
 4      5202.
 5      1102.
 6      9992.
 7       299.
 8     10505.
 9      7236.
10      5842.
# ℹ 2,245 more rows

Prediction - linear prediction

for type = "linear_pred" we get the linear prediction

surv_wflow_fit |>
  predict(horror_train, type = "linear_pred") 

# A tibble: 2,255 × 1
   .pred_linear_pred
               <dbl>
 1              8.40
 2              7.57
 3             10.3 
 4              8.56
 5              7.00
 6              9.21
 7              5.70
 8              9.26
 9              8.89
10              8.67
# ℹ 2,245 more rows

Prediction - quantile

for type = "quantile" we get the quantiles of the event time distribution

You can set quantile to something other than the default (1:9)/10

surv_wflow_fit |>
  predict(horror_train, type = "quantile") 

# A tibble: 2,255 × 1
   .pred           
   <list>          
 1 <tibble [9 × 2]>
 2 <tibble [9 × 2]>
 3 <tibble [9 × 2]>
 4 <tibble [9 × 2]>
 5 <tibble [9 × 2]>
 6 <tibble [9 × 2]>
 7 <tibble [9 × 2]>
 8 <tibble [9 × 2]>
 9 <tibble [9 × 2]>
10 <tibble [9 × 2]>
# ℹ 2,245 more rows
…
Prediction - survival

for type = "survival" we get the survival probability

surv_wflow_fit |>
  predict(horror_train, 
          type = "survival", 
          eval_time = c(1, 10, 20, 30)) 

# A tibble: 2,255 × 1
   .pred           
   <list>          
 1 <tibble [4 × 2]>
 2 <tibble [4 × 2]>
 3 <tibble [4 × 2]>
 4 <tibble [4 × 2]>
 5 <tibble [4 × 2]>
 6 <tibble [4 × 2]>
 7 <tibble [4 × 2]>
 8 <tibble [4 × 2]>
 9 <tibble [4 × 2]>
10 <tibble [4 × 2]>
# ℹ 2,245 more rows
…
Prediction - hazard

for type = "hazard" we get the hazard estimate

surv_wflow_fit |>
  predict(horror_train, 
          type = "hazard", 
          eval_time = c(1, 10, 20, 30)) 

# A tibble: 2,255 × 1
   .pred           
   <list>          
 1 <tibble [4 × 2]>
 2 <tibble [4 × 2]>
 3 <tibble [4 × 2]>
 4 <tibble [4 × 2]>
 5 <tibble [4 × 2]>
 6 <tibble [4 × 2]>
 7 <tibble [4 × 2]>
 8 <tibble [4 × 2]>
 9 <tibble [4 × 2]>
10 <tibble [4 × 2]>
# ℹ 2,245 more rows
…
K-Modes

K-Prototypes

Hierarchical (Agglomerative) Clustering

More to come next release

cluster specifications

cluster assignment + clusters + prediction

extract_cluster_assignment(kmeans_fit)

# A tibble: 2,255 × 1
   .cluster 
   <fct>    
 1 Cluster_1
 2 Cluster_1
 3 Cluster_2
 4 Cluster_3
 5 Cluster_1
 6 Cluster_3
 7 Cluster_1
 8 Cluster_4
 9 Cluster_2
10 Cluster_1
# ℹ 2,245 more rows
…
cluster assignment + clusters + prediction

predict(kmeans_fit, new_data = horror_train)

# A tibble: 2,255 × 1
   .pred_cluster
   <fct>        
 1 Cluster_1    
 2 Cluster_1    
 3 Cluster_2    
 4 Cluster_3    
 5 Cluster_1    
 6 Cluster_3    
 7 Cluster_1    
 8 Cluster_4    
 9 Cluster_2    
10 Cluster_1    
# ℹ 2,245 more rows
…
